\relax 
\providecommand\hyper@newdestlabel[2]{}
\providecommand\HyperFirstAtBeginDocument{\AtBeginDocument}
\HyperFirstAtBeginDocument{\ifx\hyper@anchor\@undefined
\global\let\oldcontentsline\contentsline
\gdef\contentsline#1#2#3#4{\oldcontentsline{#1}{#2}{#3}}
\global\let\oldnewlabel\newlabel
\gdef\newlabel#1#2{\newlabelxx{#1}#2}
\gdef\newlabelxx#1#2#3#4#5#6{\oldnewlabel{#1}{{#2}{#3}}}
\AtEndDocument{\ifx\hyper@anchor\@undefined
\let\contentsline\oldcontentsline
\let\newlabel\oldnewlabel
\fi}
\fi}
\global\let\hyper@last\relax 
\gdef\HyperFirstAtBeginDocument#1{#1}
\providecommand\HyField@AuxAddToFields[1]{}
\providecommand\HyField@AuxAddToCoFields[2]{}
\citation{harbaugh96}
\citation{ansi78}
\citation{gnu16}
\citation{jupyter17}
\citation{austin16}
\citation{hsieh93}
\citation{maxwell16}
\citation{peckham14}
\@writefile{brf}{\backcite{harbaugh96}{{1}{(document)}{Doc-Start}}}
\@writefile{brf}{\backcite{ansi78}{{1}{(document)}{Doc-Start}}}
\@writefile{brf}{\backcite{gnu16}{{1}{(document)}{Doc-Start}}}
\@writefile{brf}{\backcite{jupyter17}{{1}{(document)}{Doc-Start}}}
\@writefile{brf}{\backcite{austin16}{{1}{(document)}{Doc-Start}}}
\@writefile{brf}{\backcite{hsieh93}{{1}{(document)}{Doc-Start}}}
\@writefile{brf}{\backcite{maxwell16}{{1}{(document)}{Doc-Start}}}
\@writefile{brf}{\backcite{peckham14}{{1}{(document)}{Doc-Start}}}
\bibstyle{plainnat}
\bibdata{./sds-csc-paper.bib}
\bibcite{ansi78}{{1}{1978}{{Adams and Meissner}}{{}}}
\bibcite{jupyter17}{{2}{2017}{{Avila et~al.}}{{Avila, Bussonier, Corlay, Frederic, Granger, Grout, Hamrick, Ivanov, Kluyver, Kelley, Parente, Perez, Ragan-Kelley, Silvester, and Willing}}}
\bibcite{harbaugh96}{{3}{1996}{{Harbaugh and McDonald}}{{}}}
\bibcite{hsieh93}{{4}{1993}{{Hsieh and Freckleton}}{{}}}
\@writefile{lof}{\contentsline {figure}{\numberline {1}{\ignorespaces $O(n^2)$ -- an exemplary, fully connected point-to-point network\relax }}{2}{figure.caption.1}}
\providecommand*\caption@xref[2]{\@setref\relax\@undefined{#1}}
\newlabel{fig:p2p}{{1}{2}{$O(n^2)$ -- an exemplary, fully connected point-to-point network\relax }{figure.caption.1}{}}
\@writefile{lof}{\contentsline {figure}{\numberline {2}{\ignorespaces $O(n)$ -- a spoke-hub network with a single central node\relax }}{2}{figure.caption.1}}
\newlabel{fig:sh}{{2}{2}{$O(n)$ -- a spoke-hub network with a single central node\relax }{figure.caption.1}{}}
\bibcite{austin16}{{5}{2016}{{Josey and Fox}}{{}}}
\bibcite{maxwell16}{{6}{2016}{{Maxwell et~al.}}{{Maxwell, Kollet, Smith, Woodward, Falgout, Ferguson, Engdahl, Condon, Hector, Lopez, Gilbert, Bearup, Jefferson, Collins, de~Graaf, Pribulick, Baldwin, Bosl, Hornung, and Ashby}}}
\bibcite{peckham14}{{7}{2014}{{Peckham}}{{}}}
\bibcite{gnu16}{{8}{2016}{{Ramey}}{{}}}
