%!PS-Adobe-3.0
%%Creator: graphviz version 2.40.1 (20161225.0304)
%%Title: workflow
%%Pages: (atend)
%%BoundingBox: (atend)
%%EndComments
save
%%BeginProlog
/DotDict 200 dict def
DotDict begin

/setupLatin1 {
mark
/EncodingVector 256 array def
 EncodingVector 0

ISOLatin1Encoding 0 255 getinterval putinterval
EncodingVector 45 /hyphen put

% Set up ISO Latin 1 character encoding
/starnetISO {
        dup dup findfont dup length dict begin
        { 1 index /FID ne { def }{ pop pop } ifelse
        } forall
        /Encoding EncodingVector def
        currentdict end definefont
} def
/Times-Roman starnetISO def
/Times-Italic starnetISO def
/Times-Bold starnetISO def
/Times-BoldItalic starnetISO def
/Helvetica starnetISO def
/Helvetica-Oblique starnetISO def
/Helvetica-Bold starnetISO def
/Helvetica-BoldOblique starnetISO def
/Courier starnetISO def
/Courier-Oblique starnetISO def
/Courier-Bold starnetISO def
/Courier-BoldOblique starnetISO def
cleartomark
} bind def

%%BeginResource: procset graphviz 0 0
/coord-font-family /Times-Roman def
/default-font-family /Times-Roman def
/coordfont coord-font-family findfont 8 scalefont def

/InvScaleFactor 1.0 def
/set_scale {
       dup 1 exch div /InvScaleFactor exch def
       scale
} bind def

% styles
/solid { [] 0 setdash } bind def
/dashed { [9 InvScaleFactor mul dup ] 0 setdash } bind def
/dotted { [1 InvScaleFactor mul 6 InvScaleFactor mul] 0 setdash } bind def
/invis {/fill {newpath} def /stroke {newpath} def /show {pop newpath} def} bind def
/bold { 2 setlinewidth } bind def
/filled { } bind def
/unfilled { } bind def
/rounded { } bind def
/diagonals { } bind def
/tapered { } bind def

% hooks for setting color 
/nodecolor { sethsbcolor } bind def
/edgecolor { sethsbcolor } bind def
/graphcolor { sethsbcolor } bind def
/nopcolor {pop pop pop} bind def

/beginpage {	% i j npages
	/npages exch def
	/j exch def
	/i exch def
	/str 10 string def
	npages 1 gt {
		gsave
			coordfont setfont
			0 0 moveto
			(\() show i str cvs show (,) show j str cvs show (\)) show
		grestore
	} if
} bind def

/set_font {
	findfont exch
	scalefont setfont
} def

% draw text fitted to its expected width
/alignedtext {			% width text
	/text exch def
	/width exch def
	gsave
		width 0 gt {
			[] 0 setdash
			text stringwidth pop width exch sub text length div 0 text ashow
		} if
	grestore
} def

/boxprim {				% xcorner ycorner xsize ysize
		4 2 roll
		moveto
		2 copy
		exch 0 rlineto
		0 exch rlineto
		pop neg 0 rlineto
		closepath
} bind def

/ellipse_path {
	/ry exch def
	/rx exch def
	/y exch def
	/x exch def
	matrix currentmatrix
	newpath
	x y translate
	rx ry scale
	0 0 1 0 360 arc
	setmatrix
} bind def

/endpage { showpage } bind def
/showpage { } def

/layercolorseq
	[	% layer color sequence - darkest to lightest
		[0 0 0]
		[.2 .8 .8]
		[.4 .8 .8]
		[.6 .8 .8]
		[.8 .8 .8]
	]
def

/layerlen layercolorseq length def

/setlayer {/maxlayer exch def /curlayer exch def
	layercolorseq curlayer 1 sub layerlen mod get
	aload pop sethsbcolor
	/nodecolor {nopcolor} def
	/edgecolor {nopcolor} def
	/graphcolor {nopcolor} def
} bind def

/onlayer { curlayer ne {invis} if } def

/onlayers {
	/myupper exch def
	/mylower exch def
	curlayer mylower lt
	curlayer myupper gt
	or
	{invis} if
} def

/curlayer 0 def

%%EndResource
%%EndProlog
%%BeginSetup
14 default-font-family set_font
% /arrowlength 10 def
% /arrowwidth 5 def

% make sure pdfmark is harmless for PS-interpreters other than Distiller
/pdfmark where {pop} {userdict /pdfmark /cleartomark load put} ifelse
% make '<<' and '>>' safe on PS Level 1 devices
/languagelevel where {pop languagelevel}{1} ifelse
2 lt {
    userdict (<<) cvn ([) cvn load put
    userdict (>>) cvn ([) cvn load put
} if

%%EndSetup
setupLatin1
%%Page: 1 1
%%PageBoundingBox: 36 36 840 512
%%PageOrientation: Portrait
0 0 1 beginpage
gsave
36 36 804 476 boxprim clip newpath
1 1 set_scale 0 rotate 40 40 translate
% sbatch
gsave
1 setlinewidth
0 0 0 nodecolor
370.496 450 42.4939 18 ellipse_path stroke
0 0 0 nodecolor
14 /Times-Roman set_font
345.996 446.3 moveto 49 (sbatch) alignedtext
grestore
% launcher
gsave
1 setlinewidth
0 0 0 nodecolor
370.496 378 51.9908 18 ellipse_path stroke
0 0 0 nodecolor
14 /Times-Roman set_font
338.496 374.3 moveto 64 (launcher) alignedtext
grestore
% sbatch->launcher
gsave
1 setlinewidth
0 0 0 edgecolor
newpath 370.496 431.8314 moveto
370.496 424.131 370.496 414.9743 370.496 406.4166 curveto
stroke
0 0 0 edgecolor
newpath 373.9961 406.4132 moveto
370.496 396.4133 lineto
366.9961 406.4133 lineto
closepath fill
1 setlinewidth
solid
0 0 0 edgecolor
newpath 373.9961 406.4132 moveto
370.496 396.4133 lineto
366.9961 406.4133 lineto
closepath stroke
grestore
% cp_1a
gsave
1 setlinewidth
0 0 0 nodecolor
175.496 306 38.1938 18 ellipse_path stroke
0 0 0 nodecolor
14 /Times-Roman set_font
153.996 302.3 moveto 43 (cp_1a) alignedtext
grestore
% launcher->cp_1a
gsave
1 setlinewidth
0 0 0 edgecolor
newpath 334.73 364.7941 moveto
300.9613 352.3257 250.4089 333.6602 215.3591 320.7187 curveto
stroke
0 0 0 edgecolor
newpath 216.5045 317.4107 moveto
205.9112 317.2302 lineto
214.0798 323.9774 lineto
closepath fill
1 setlinewidth
solid
0 0 0 edgecolor
newpath 216.5045 317.4107 moveto
205.9112 317.2302 lineto
214.0798 323.9774 lineto
closepath stroke
grestore
% cp_2a
gsave
1 setlinewidth
0 0 0 nodecolor
370.496 306 38.1938 18 ellipse_path stroke
0 0 0 nodecolor
14 /Times-Roman set_font
348.996 302.3 moveto 43 (cp_2a) alignedtext
grestore
% launcher->cp_2a
gsave
1 setlinewidth
0 0 0 edgecolor
newpath 370.496 359.8314 moveto
370.496 352.131 370.496 342.9743 370.496 334.4166 curveto
stroke
0 0 0 edgecolor
newpath 373.9961 334.4132 moveto
370.496 324.4133 lineto
366.9961 334.4133 lineto
closepath fill
1 setlinewidth
solid
0 0 0 edgecolor
newpath 373.9961 334.4132 moveto
370.496 324.4133 lineto
366.9961 334.4133 lineto
closepath stroke
grestore
% cp_Na
gsave
1 setlinewidth
0 0 0 nodecolor
567.496 306 40.0939 18 ellipse_path stroke
0 0 0 nodecolor
14 /Times-Roman set_font
544.496 302.3 moveto 46 (cp_Na) alignedtext
grestore
% launcher->cp_Na
gsave
1 setlinewidth
0 0 0 edgecolor
newpath 406.6288 364.7941 moveto
440.5407 352.3999 491.2073 333.8821 526.59 320.9504 curveto
stroke
0 0 0 edgecolor
newpath 527.947 324.181 moveto
536.1378 317.4608 lineto
525.544 317.6063 lineto
closepath fill
1 setlinewidth
solid
0 0 0 edgecolor
newpath 527.947 324.181 moveto
536.1378 317.4608 lineto
525.544 317.6063 lineto
closepath stroke
grestore
% mf96_1
gsave
1 setlinewidth
0 0 0 nodecolor
45.496 234 45.4919 18 ellipse_path stroke
0 0 0 nodecolor
14 /Times-Roman set_font
18.496 230.3 moveto 54 (mf96_1) alignedtext
grestore
% cp_1a->mf96_1
gsave
1 setlinewidth
0 0 0 edgecolor
newpath 150.4307 292.1177 moveto
130.8046 281.2479 103.248 265.9858 81.2986 253.8291 curveto
stroke
0 0 0 edgecolor
newpath 82.7181 250.6144 moveto
72.2744 248.8311 lineto
79.3266 256.738 lineto
closepath fill
1 setlinewidth
solid
0 0 0 edgecolor
newpath 82.7181 250.6144 moveto
72.2744 248.8311 lineto
79.3266 256.738 lineto
closepath stroke
grestore
% mf96to2k_1
gsave
1 setlinewidth
0 0 0 nodecolor
175.496 234 66.0889 18 ellipse_path stroke
0 0 0 nodecolor
14 /Times-Roman set_font
132.496 230.3 moveto 86 (mf96to2k_1) alignedtext
grestore
% cp_1a->mf96to2k_1
gsave
1 setlinewidth
0 0 0 edgecolor
newpath 175.496 287.8314 moveto
175.496 280.131 175.496 270.9743 175.496 262.4166 curveto
stroke
0 0 0 edgecolor
newpath 178.9961 262.4132 moveto
175.496 252.4133 lineto
171.9961 262.4133 lineto
closepath fill
1 setlinewidth
solid
0 0 0 edgecolor
newpath 178.9961 262.4132 moveto
175.496 252.4133 lineto
171.9961 262.4133 lineto
closepath stroke
grestore
% mf96_2
gsave
1 setlinewidth
0 0 0 nodecolor
305.496 234 45.4919 18 ellipse_path stroke
0 0 0 nodecolor
14 /Times-Roman set_font
278.496 230.3 moveto 54 (mf96_2) alignedtext
grestore
% cp_2a->mf96_2
gsave
1 setlinewidth
0 0 0 edgecolor
newpath 355.4203 289.3008 moveto
347.1719 280.1641 336.7976 268.6726 327.6459 258.5353 curveto
stroke
0 0 0 edgecolor
newpath 330.2403 256.186 moveto
320.9413 251.1086 lineto
325.0444 260.8767 lineto
closepath fill
1 setlinewidth
solid
0 0 0 edgecolor
newpath 330.2403 256.186 moveto
320.9413 251.1086 lineto
325.0444 260.8767 lineto
closepath stroke
grestore
% mf96to2k_2
gsave
1 setlinewidth
0 0 0 nodecolor
435.496 234 66.0889 18 ellipse_path stroke
0 0 0 nodecolor
14 /Times-Roman set_font
392.496 230.3 moveto 86 (mf96to2k_2) alignedtext
grestore
% cp_2a->mf96to2k_2
gsave
1 setlinewidth
0 0 0 edgecolor
newpath 385.5716 289.3008 moveto
393.6208 280.3848 403.6944 269.2264 412.6808 259.2722 curveto
stroke
0 0 0 edgecolor
newpath 415.4921 261.3813 moveto
419.5952 251.6132 lineto
410.2962 256.6905 lineto
closepath fill
1 setlinewidth
solid
0 0 0 edgecolor
newpath 415.4921 261.3813 moveto
419.5952 251.6132 lineto
410.2962 256.6905 lineto
closepath stroke
grestore
% mf96_N
gsave
1 setlinewidth
0 0 0 nodecolor
567.496 234 48.1917 18 ellipse_path stroke
0 0 0 nodecolor
14 /Times-Roman set_font
538.496 230.3 moveto 58 (mf96_N) alignedtext
grestore
% cp_Na->mf96_N
gsave
1 setlinewidth
0 0 0 edgecolor
newpath 567.496 287.8314 moveto
567.496 280.131 567.496 270.9743 567.496 262.4166 curveto
stroke
0 0 0 edgecolor
newpath 570.9961 262.4132 moveto
567.496 252.4133 lineto
563.9961 262.4133 lineto
closepath fill
1 setlinewidth
solid
0 0 0 edgecolor
newpath 570.9961 262.4132 moveto
567.496 252.4133 lineto
563.9961 262.4133 lineto
closepath stroke
grestore
% mf96to2k_N
gsave
1 setlinewidth
0 0 0 nodecolor
702.496 234 68.7879 18 ellipse_path stroke
0 0 0 nodecolor
14 /Times-Roman set_font
657.496 230.3 moveto 90 (mf96to2k_N) alignedtext
grestore
% cp_Na->mf96to2k_N
gsave
1 setlinewidth
0 0 0 edgecolor
newpath 593.5253 292.1177 moveto
613.1891 281.6303 640.5191 267.0543 662.8893 255.1236 curveto
stroke
0 0 0 edgecolor
newpath 664.6437 258.1546 moveto
671.8202 250.3604 lineto
661.3496 251.9781 lineto
closepath fill
1 setlinewidth
solid
0 0 0 edgecolor
newpath 664.6437 258.1546 moveto
671.8202 250.3604 lineto
661.3496 251.9781 lineto
closepath stroke
grestore
% mf2k_1
gsave
1 setlinewidth
0 0 0 nodecolor
124.496 162 45.4919 18 ellipse_path stroke
0 0 0 nodecolor
14 /Times-Roman set_font
97.496 158.3 moveto 54 (mf2k_1) alignedtext
grestore
% mf96to2k_1->mf2k_1
gsave
1 setlinewidth
0 0 0 edgecolor
newpath 162.8892 216.2022 moveto
156.7916 207.5938 149.3592 197.1011 142.6639 187.6488 curveto
stroke
0 0 0 edgecolor
newpath 145.418 185.4818 moveto
136.7817 179.3446 lineto
139.7058 189.5279 lineto
closepath fill
1 setlinewidth
solid
0 0 0 edgecolor
newpath 145.418 185.4818 moveto
136.7817 179.3446 lineto
139.7058 189.5279 lineto
closepath stroke
grestore
% cp_1b
gsave
1 setlinewidth
0 0 0 nodecolor
226.496 162 38.1938 18 ellipse_path stroke
0 0 0 nodecolor
14 /Times-Roman set_font
204.996 158.3 moveto 43 (cp_1b) alignedtext
grestore
% mf96to2k_1->cp_1b
gsave
1 setlinewidth
0 0 0 edgecolor
newpath 188.1027 216.2022 moveto
194.2455 207.5301 201.7429 196.9455 208.4767 187.4389 curveto
stroke
0 0 0 edgecolor
newpath 211.4613 189.2806 moveto
214.3854 179.0972 lineto
205.7491 185.2344 lineto
closepath fill
1 setlinewidth
solid
0 0 0 edgecolor
newpath 211.4613 189.2806 moveto
214.3854 179.0972 lineto
205.7491 185.2344 lineto
closepath stroke
grestore
% mf2kto05_1
gsave
1 setlinewidth
0 0 0 nodecolor
226.496 90 66.0889 18 ellipse_path stroke
0 0 0 nodecolor
14 /Times-Roman set_font
183.496 86.3 moveto 86 (mf2kto05_1) alignedtext
grestore
% cp_1b->mf2kto05_1
gsave
1 setlinewidth
0 0 0 edgecolor
newpath 226.496 143.8314 moveto
226.496 136.131 226.496 126.9743 226.496 118.4166 curveto
stroke
0 0 0 edgecolor
newpath 229.9961 118.4132 moveto
226.496 108.4133 lineto
222.9961 118.4133 lineto
closepath fill
1 setlinewidth
solid
0 0 0 edgecolor
newpath 229.9961 118.4132 moveto
226.496 108.4133 lineto
222.9961 118.4133 lineto
closepath stroke
grestore
% mf05_1
gsave
1 setlinewidth
0 0 0 nodecolor
226.496 18 45.4919 18 ellipse_path stroke
0 0 0 nodecolor
14 /Times-Roman set_font
199.496 14.3 moveto 54 (mf05_1) alignedtext
grestore
% mf2kto05_1->mf05_1
gsave
1 setlinewidth
0 0 0 edgecolor
newpath 226.496 71.8314 moveto
226.496 64.131 226.496 54.9743 226.496 46.4166 curveto
stroke
0 0 0 edgecolor
newpath 229.9961 46.4132 moveto
226.496 36.4133 lineto
222.9961 46.4133 lineto
closepath fill
1 setlinewidth
solid
0 0 0 edgecolor
newpath 229.9961 46.4132 moveto
226.496 36.4133 lineto
222.9961 46.4133 lineto
closepath stroke
grestore
% mf2k_2
gsave
1 setlinewidth
0 0 0 nodecolor
409.496 162 45.4919 18 ellipse_path stroke
0 0 0 nodecolor
14 /Times-Roman set_font
382.496 158.3 moveto 54 (mf2k_2) alignedtext
grestore
% mf96to2k_2->mf2k_2
gsave
1 setlinewidth
0 0 0 edgecolor
newpath 428.9351 215.8314 moveto
426.0495 207.8406 422.5977 198.2819 419.409 189.4514 curveto
stroke
0 0 0 edgecolor
newpath 422.6531 188.1302 moveto
415.9647 179.9134 lineto
416.0693 190.5077 lineto
closepath fill
1 setlinewidth
solid
0 0 0 edgecolor
newpath 422.6531 188.1302 moveto
415.9647 179.9134 lineto
416.0693 190.5077 lineto
closepath stroke
grestore
% cp_2b
gsave
1 setlinewidth
0 0 0 nodecolor
511.496 162 38.1938 18 ellipse_path stroke
0 0 0 nodecolor
14 /Times-Roman set_font
489.996 158.3 moveto 43 (cp_2b) alignedtext
grestore
% mf96to2k_2->cp_2b
gsave
1 setlinewidth
0 0 0 edgecolor
newpath 453.8934 216.5708 moveto
463.7915 207.1937 476.1331 195.5016 486.8508 185.3481 curveto
stroke
0 0 0 edgecolor
newpath 489.4573 187.7 moveto
494.3097 178.2817 lineto
484.6431 182.6183 lineto
closepath fill
1 setlinewidth
solid
0 0 0 edgecolor
newpath 489.4573 187.7 moveto
494.3097 178.2817 lineto
484.6431 182.6183 lineto
closepath stroke
grestore
% mf2kto05_2
gsave
1 setlinewidth
0 0 0 nodecolor
511.496 90 66.0889 18 ellipse_path stroke
0 0 0 nodecolor
14 /Times-Roman set_font
468.496 86.3 moveto 86 (mf2kto05_2) alignedtext
grestore
% cp_2b->mf2kto05_2
gsave
1 setlinewidth
0 0 0 edgecolor
newpath 511.496 143.8314 moveto
511.496 136.131 511.496 126.9743 511.496 118.4166 curveto
stroke
0 0 0 edgecolor
newpath 514.9961 118.4132 moveto
511.496 108.4133 lineto
507.9961 118.4133 lineto
closepath fill
1 setlinewidth
solid
0 0 0 edgecolor
newpath 514.9961 118.4132 moveto
511.496 108.4133 lineto
507.9961 118.4133 lineto
closepath stroke
grestore
% mf05_2
gsave
1 setlinewidth
0 0 0 nodecolor
511.496 18 45.4919 18 ellipse_path stroke
0 0 0 nodecolor
14 /Times-Roman set_font
484.496 14.3 moveto 54 (mf05_2) alignedtext
grestore
% mf2kto05_2->mf05_2
gsave
1 setlinewidth
0 0 0 edgecolor
newpath 511.496 71.8314 moveto
511.496 64.131 511.496 54.9743 511.496 46.4166 curveto
stroke
0 0 0 edgecolor
newpath 514.9961 46.4132 moveto
511.496 36.4133 lineto
507.9961 46.4133 lineto
closepath fill
1 setlinewidth
solid
0 0 0 edgecolor
newpath 514.9961 46.4132 moveto
511.496 36.4133 lineto
507.9961 46.4133 lineto
closepath stroke
grestore
% mf2k_N
gsave
1 setlinewidth
0 0 0 nodecolor
620.496 162 48.1917 18 ellipse_path stroke
0 0 0 nodecolor
14 /Times-Roman set_font
591.496 158.3 moveto 58 (mf2k_N) alignedtext
grestore
% mf96to2k_N->mf2k_N
gsave
1 setlinewidth
0 0 0 edgecolor
newpath 682.6461 216.5708 moveto
672.0169 207.2379 658.7761 195.6119 647.2505 185.4918 curveto
stroke
0 0 0 edgecolor
newpath 649.4222 182.7409 moveto
639.5984 178.7729 lineto
644.8036 188.001 lineto
closepath fill
1 setlinewidth
solid
0 0 0 edgecolor
newpath 649.4222 182.7409 moveto
639.5984 178.7729 lineto
644.8036 188.001 lineto
closepath stroke
grestore
% cp_Nb
gsave
1 setlinewidth
0 0 0 nodecolor
727.496 162 40.8928 18 ellipse_path stroke
0 0 0 nodecolor
14 /Times-Roman set_font
703.996 158.3 moveto 47 (cp_Nb) alignedtext
grestore
% mf96to2k_N->cp_Nb
gsave
1 setlinewidth
0 0 0 edgecolor
newpath 708.8045 215.8314 moveto
711.5791 207.8406 714.8981 198.2819 717.9642 189.4514 curveto
stroke
0 0 0 edgecolor
newpath 721.3022 190.5082 moveto
721.276 179.9134 lineto
714.6895 188.2121 lineto
closepath fill
1 setlinewidth
solid
0 0 0 edgecolor
newpath 721.3022 190.5082 moveto
721.276 179.9134 lineto
714.6895 188.2121 lineto
closepath stroke
grestore
% mf2kto05_N
gsave
1 setlinewidth
0 0 0 nodecolor
727.496 90 68.7879 18 ellipse_path stroke
0 0 0 nodecolor
14 /Times-Roman set_font
682.496 86.3 moveto 90 (mf2kto05_N) alignedtext
grestore
% cp_Nb->mf2kto05_N
gsave
1 setlinewidth
0 0 0 edgecolor
newpath 727.496 143.8314 moveto
727.496 136.131 727.496 126.9743 727.496 118.4166 curveto
stroke
0 0 0 edgecolor
newpath 730.9961 118.4132 moveto
727.496 108.4133 lineto
723.9961 118.4133 lineto
closepath fill
1 setlinewidth
solid
0 0 0 edgecolor
newpath 730.9961 118.4132 moveto
727.496 108.4133 lineto
723.9961 118.4133 lineto
closepath stroke
grestore
% mf05_N
gsave
1 setlinewidth
0 0 0 nodecolor
727.496 18 48.1917 18 ellipse_path stroke
0 0 0 nodecolor
14 /Times-Roman set_font
698.496 14.3 moveto 58 (mf05_N) alignedtext
grestore
% mf2kto05_N->mf05_N
gsave
1 setlinewidth
0 0 0 edgecolor
newpath 727.496 71.8314 moveto
727.496 64.131 727.496 54.9743 727.496 46.4166 curveto
stroke
0 0 0 edgecolor
newpath 730.9961 46.4132 moveto
727.496 36.4133 lineto
723.9961 46.4133 lineto
closepath fill
1 setlinewidth
solid
0 0 0 edgecolor
newpath 730.9961 46.4132 moveto
727.496 36.4133 lineto
723.9961 46.4133 lineto
closepath stroke
grestore
endpage
showpage
grestore
%%PageTrailer
%%EndPage: 1
%%Trailer
%%Pages: 1
%%BoundingBox: 36 36 840 512
end
restore
%%EOF
